Climate Change · Portfolio website for Karim Abi Fadel
…
                                Climate Change

Climate change and temperature anomalies

In order to study climate change, we can find data on the Combined Land-Surface Air and Sea-Surface Water Temperature Anomalies in the Northern Hemisphere at NASA’s Goddard Institute for Space Studies. The tabular data of temperature anomalies can be found here

weather <- 
  read_csv("https://data.giss.nasa.gov/gistemp/tabledata_v3/NH.Ts+dSST.csv", 
           skip = 1, 
           na = "***")

weather

## # A tibble: 140 x 19
##     Year   Jan    Feb    Mar   Apr   May   Jun   Jul   Aug   Sep   Oct   Nov
##    <dbl> <dbl>  <dbl>  <dbl> <dbl> <dbl> <dbl> <dbl> <dbl> <dbl> <dbl> <dbl>
##  1  1880 -0.54 -0.38  -0.26  -0.37 -0.11 -0.22 -0.23 -0.24 -0.26 -0.32 -0.37
##  2  1881 -0.19 -0.25   0.02  -0.02 -0.06 -0.36 -0.06 -0.03 -0.23 -0.4  -0.42
##  3  1882  0.22  0.22   0     -0.36 -0.32 -0.38 -0.37 -0.14 -0.17 -0.53 -0.32
##  4  1883 -0.59 -0.67  -0.16  -0.27 -0.32 -0.26 -0.09 -0.26 -0.33 -0.21 -0.4 
##  5  1884 -0.23 -0.11  -0.65  -0.62 -0.42 -0.52 -0.48 -0.5  -0.45 -0.41 -0.48
##  6  1885 -1    -0.37  -0.21  -0.53 -0.55 -0.47 -0.39 -0.44 -0.32 -0.3  -0.28
##  7  1886 -0.68 -0.68  -0.570 -0.34 -0.34 -0.43 -0.2  -0.47 -0.34 -0.31 -0.45
##  8  1887 -1.07 -0.580 -0.36  -0.42 -0.27 -0.2  -0.23 -0.52 -0.17 -0.4  -0.19
##  9  1888 -0.53 -0.59  -0.580 -0.24 -0.16 -0.04  0.04 -0.19 -0.12  0.04 -0.03
## 10  1889 -0.31  0.35   0.07   0.15 -0.05 -0.12 -0.1  -0.16 -0.26 -0.34 -0.61
## # ... with 130 more rows, and 7 more variables: Dec <dbl>, `J-D` <dbl>,
## #   `D-N` <dbl>, DJF <dbl>, MAM <dbl>, JJA <dbl>, SON <dbl>

Reframing the data for smoother analysis

tidyweather <- weather %>% 
  select(-c("J-D","D-N","DJF","MAM","JJA","SON")) %>% 
  pivot_longer(cols="Jan":"Dec", names_to = "Month", values_to = "delta")

tidyweather

## # A tibble: 1,680 x 3
##     Year Month delta
##    <dbl> <chr> <dbl>
##  1  1880 Jan   -0.54
##  2  1880 Feb   -0.38
##  3  1880 Mar   -0.26
##  4  1880 Apr   -0.37
##  5  1880 May   -0.11
##  6  1880 Jun   -0.22
##  7  1880 Jul   -0.23
##  8  1880 Aug   -0.24
##  9  1880 Sep   -0.26
## 10  1880 Oct   -0.32
## # ... with 1,670 more rows
…
